C:\Users\Billy\IdeaProjects\BookShop\src\main\java\App.java
C:\Users\Billy\IdeaProjects\BookShop\src\main\java\exceptions\ApiException.java
C:\Users\Billy\IdeaProjects\BookShop\src\main\java\models\dao\BooksImplementDAO.java
C:\Users\Billy\IdeaProjects\BookShop\src\main\java\models\dao\UserDAO.java
C:\Users\Billy\IdeaProjects\BookShop\src\main\java\models\pojos\Books.java
C:\Users\Billy\IdeaProjects\BookShop\src\main\java\Api.java
C:\Users\Billy\IdeaProjects\BookShop\src\main\java\models\dao\BooksDAO.java
C:\Users\Billy\IdeaProjects\BookShop\src\main\java\models\dao\UserImplementDAO.java
C:\Users\Billy\IdeaProjects\BookShop\src\main\java\models\pojos\Users.java
