C:\Users\Billy\IdeaProjects\BookShop\src\test\java\models\dao\BooksImplementDAOTest.java
C:\Users\Billy\IdeaProjects\BookShop\src\test\java\models\dao\UserImplementDAOTest.java
C:\Users\Billy\IdeaProjects\BookShop\src\test\java\models\pojos\BooksTest.java
C:\Users\Billy\IdeaProjects\BookShop\src\test\java\models\pojos\UsersTest.java
